…
``` r
time_in_grade <- examiner_gs %>% 
  mutate(
    start_date = mdy(start_date), # converting into proper date type
    end_date = mdy(end_date), # converting into proper date type
    days_in_grade = interval(start_date, end_date) %/% days(1)
  ) %>% 
  group_by(examiner_id) %>% 
  filter(grade!=max(grade, na.rm = TRUE)) %>% # dropping the highest grade record
  summarise(mean_days_in_grade = mean(days_in_grade, na.rm = TRUE))
time_in_grade
```

    ## # A tibble: 10,860 x 2
    ##    examiner_id mean_days_in_grade
    ##          <dbl>              <dbl>
    ##  1       59012               356.
    ##  2       59015               783 
    ##  3       59016               341.
    ##  4       59018               368.
    ##  5       59019               293 
    ##  6       59025               485 
    ##  7       59027               364.
    ##  8       59030               493.
    ##  9       59033               258.
    ## 10       59035               308.
    ## # ... with 10,850 more rows
…
    app_proc_days = interval(app_start_date, app_end_date) %/% days(1)) %>% 
  filter(app_proc_days>0 & app_proc_days < 3650) %>% # limit to 0-10 years
  group_by(examiner_id) %>% 
  summarise(
    app_count = n(),
    tc = min(tc, na.rm = TRUE),
    gender = first(gender),
    race = first(race),
    tenure_days = max(tenure_days, na.rm = TRUE),
    mean_app_proc_days = mean(app_proc_days, na.rm = TRUE)
  )
examiner_data
```

    ## # A tibble: 5,549 x 7
    ##    examiner_id app_count    tc gender race  tenure_days mean_app_proc_days
    ##          <dbl>     <int> <dbl> <chr>  <chr>       <dbl>              <dbl>
    ##  1       59012        84  1700 male   white        4013              1295.
    ##  2       59025        96  2400 male   Asian        2761              1152.
    ##  3       59030       358  2400 <NA>   black        4179              1008.
    ##  4       59040       233  1700 female Asian        3542              1305.
    ##  5       59052         8  2100 male   Asian        2017               535.
    ##  6       59054        10  2100 <NA>   Asian        5887              1297 
    ##  7       59055         2  2100 male   Asian        1149               932.
    ##  8       59056      1019  2100 male   Asian        6268              1077.
    ##  9       59074       166  2100 <NA>   white        6255              1579.
    ## 10       59081        48  2400 male   Asian        2220              1317.
    ## # ... with 5,539 more rows

Now, let’s join in the time in grade data.

``` r
examiner_data <- examiner_data %>% 
  left_join(time_in_grade)
```

    ## Joining, by = "examiner_id"

``` r
examiner_data
```

    ## # A tibble: 5,549 x 8
    ##    examiner_id app_count    tc gender race  tenure_days mean_app_proc_days
    ##          <dbl>     <int> <dbl> <chr>  <chr>       <dbl>              <dbl>
    ##  1       59012        84  1700 male   white        4013              1295.
    ##  2       59025        96  2400 male   Asian        2761              1152.
    ##  3       59030       358  2400 <NA>   black        4179              1008.
    ##  4       59040       233  1700 female Asian        3542              1305.
    ##  5       59052         8  2100 male   Asian        2017               535.
    ##  6       59054        10  2100 <NA>   Asian        5887              1297 
    ##  7       59055         2  2100 male   Asian        1149               932.
    ##  8       59056      1019  2100 male   Asian        6268              1077.
    ##  9       59074       166  2100 <NA>   white        6255              1579.
    ## 10       59081        48  2400 male   Asian        2220              1317.
    ## # ... with 5,539 more rows, and 1 more variable: mean_days_in_grade <dbl>
…
